[
{
"id": "1",
"name": "IphoneX",
"price": "1000",
"screen": "screen 68",
"backCamera": "Camera: Chính 2 camera 12 MP",
"frontCamera": "7 MP",
"img": "https://cdn.tgdd.vn/Products/Images/42/114115/iphone-x-64gb-hh-600x600.jpg",
"desc": "Thiết kế mang tính đột phá",
"type": "apple"
},
{
"id": "2",
"name": "Samsung Galaxy M51 ",
"price": "450",
"screen": "screen 69",
"backCamera": "Camera: Chính 64 MP & Phụ 12 MP, 5 MP, 5 MP",
"frontCamera": "32 MP",
"img": "https://cdn.tgdd.vn/Products/Images/42/217536/samsung-galaxy-m51-trang-new-600x600-600x600.jpg",
"desc": "Thiết kế đột phá, màn hình tuyệt đỉnh",
"type": "android"
},
{
"id": "3",
"name": "Samsung Galaxy M22",
"price": "350",
"screen": "screen 70",
"backCamera": "Camera: Chính 12 MP & Phụ 64 MP, 12 MP",
"frontCamera": "32 MP",
"img": "https://cdn.tgdd.vn/Products/Images/42/240211/samsung-galaxy-m22-1-600x600.jpg",
"desc": "Thiết kế mang tính đột phá",
"type": "android"
},
{
"id": "4",
"name": "Iphone 11",
"price": "1200",
"screen": "screen 54",
"backCamera": "Camera: Chính 12 MP & Phụ 64 MP, 12 MP",
"frontCamera": "32 MP",
"img": "https://didongviet.vn/pub/media/catalog/product//i/p/iphone-11-pro-max-256gb-didongviet_23.jpg",
"desc": "Thiết kế đột phá, màn hình tuyệt đỉnh",
"type": "apple"
}
]